# Fdb version 3
["pdflatex"] 1596704000 "main.tex" "_build/main/main.pdf" "main" 1596704001
  "/Users/remy/lib/tex/advi.sty" 1413140702 31898 6543e09d041bdf7cc3e492a42a642a71 ""
  "/opt/local/etc/texmf/texmf.cnf" 1575204503 33535 ada7370db7b4612ca3ffe99ea57dc878 ""
  "/opt/local/share/texmf-texlive/fonts/map/fontname/texfonts.map" 1556757356 3332 103109f5612ad95229751940c61aada0 ""
  "/opt/local/share/texmf-texlive/fonts/tfm/public/cm/cmbx10.tfm" 1556757456 1328 c834bbb027764024c09d3d2bf908b5f0 ""
  "/opt/local/share/texmf-texlive/fonts/tfm/public/cm/cmbx12.tfm" 1556757456 1324 c910af8c371558dc20f2d7822f66fe64 ""
  "/opt/local/share/texmf-texlive/fonts/tfm/public/cm/cmr12.tfm" 1556757456 1288 655e228510b4c2a1abe905c368440826 ""
  "/opt/local/share/texmf-texlive/fonts/tfm/public/cm/cmtt10.tfm" 1556757456 768 1321e9409b4137d6fb428ac9dc956269 ""
  "/opt/local/share/texmf-texlive/fonts/type1/public/amsfonts/cm/cmbx10.pfb" 1556757566 34811 78b52f49e893bcba91bd7581cdc144c0 ""
  "/opt/local/share/texmf-texlive/fonts/type1/public/amsfonts/cm/cmbx12.pfb" 1556757566 32080 340ef9bf63678554ee606688e7b5339d ""
  "/opt/local/share/texmf-texlive/fonts/type1/public/amsfonts/cm/cmr10.pfb" 1556757566 35752 024fb6c41858982481f6968b5fc26508 ""
  "/opt/local/share/texmf-texlive/fonts/type1/public/amsfonts/cm/cmtt10.pfb" 1556757566 31099 c85edf1dd5b9e826d67c9c7293b6786c ""
  "/opt/local/share/texmf-texlive/tex/context/base/mkii/supp-pdf.mkii" 1556757891 71627 94eb9990bed73c364d7f53f960cc8c5b ""
  "/opt/local/share/texmf-texlive/tex/generic/ifxetex/ifxetex.sty" 1556757910 1458 43ab4710dc82f3edeabecd0d099626b2 ""
  "/opt/local/share/texmf-texlive/tex/generic/oberdiek/gettitlestring.sty" 1556757912 8237 3b62ef1f7e2c23a328c814b3893bc11f ""
  "/opt/local/share/texmf-texlive/tex/generic/oberdiek/hobsub-generic.sty" 1556757912 185392 b99a6d53180e04300c35e18725f31231 ""
  "/opt/local/share/texmf-texlive/tex/generic/oberdiek/hobsub-hyperref.sty" 1556757912 70864 bcd5b216757bd619ae692a151d90085d ""
  "/opt/local/share/texmf-texlive/tex/latex/base/article.cls" 1556757929 19933 3097d1b31d3c45dc957096f554529032 ""
  "/opt/local/share/texmf-texlive/tex/latex/base/size10.clo" 1556757929 8294 6d6e23d5169c0d89d173f6c7e08a005a ""
  "/opt/local/share/texmf-texlive/tex/latex/graphics-cfg/color.cfg" 1556757964 1213 620bba36b25224fa9b7e1ccb4ecb76fd ""
  "/opt/local/share/texmf-texlive/tex/latex/graphics-def/pdftex.def" 1556757964 17334 520b9b85ad8a2a48eda3f643e27a5179 ""
  "/opt/local/share/texmf-texlive/tex/latex/graphics/color.sty" 1556757964 7028 112f909feb676788e7ea1c5b0b76320f ""
  "/opt/local/share/texmf-texlive/tex/latex/graphics/keyval.sty" 1556757964 2591 6404d0c7d28505fb38ce0d86c2e28ae7 ""
  "/opt/local/share/texmf-texlive/tex/latex/hyperref/hpdftex.def" 1556757965 51744 477aad43ad6a7ba8c462d20c3e0808e0 ""
  "/opt/local/share/texmf-texlive/tex/latex/hyperref/hyperref.sty" 1556757965 236074 d994150943d35d6af0d586a60cc78dd1 ""
  "/opt/local/share/texmf-texlive/tex/latex/hyperref/nameref.sty" 1556757965 12949 81e4e808884a8f0e276b69410e234656 ""
  "/opt/local/share/texmf-texlive/tex/latex/hyperref/pd1enc.def" 1556757965 14098 b4e1ecab4699a0341b8e1349e4c53fb1 ""
  "/opt/local/share/texmf-texlive/tex/latex/latexconfig/hyperref.cfg" 1556757969 235 6031e5765137be07eed51a510b2b8fb7 ""
  "/opt/local/share/texmf-texlive/tex/latex/oberdiek/auxhook.sty" 1556757980 3834 4363110eb0ef1eb2b71c8fcbcdb6c357 ""
  "/opt/local/share/texmf-texlive/tex/latex/oberdiek/kvoptions.sty" 1556757980 22417 1d9df1eb66848aa31b18a593099cf45c ""
  "/opt/local/share/texmf-texlive/tex/latex/oberdiek/rerunfilecheck.sty" 1556757980 9581 023642318cef9f4677efe364de1e2a27 ""
  "/opt/local/share/texmf-texlive/tex/latex/url/url.sty" 1556757999 12796 8edb7d69a20b857904dd0ea757c14ec9 ""
  "/opt/local/var/db/texmf/fonts/map/pdftex/updmap/pdftex.map" 1576055773 3102755 0cac09d11ebb5bc7525b0a2692390765 ""
  "/opt/local/var/db/texmf/web2c/pdftex/pdflatex.fmt" 1575206569 3640701 f66bd387c9f55bf0abf219b471873239 ""
  "_build/main/main.aux" 1596704001 1404 b073068c37cd25e6a8b56f39d614588e "pdflatex"
  "_build/main/main.out" 1596704001 294 9ea922222a9af5be0c3a6b2535199980 "pdflatex"
  "_build/main/main.toc" 1596704001 462 011e7bef756e6392e89bd50e5c89995a "pdflatex"
  "main.tex" 1596554116 1243 f912cda0bdaabc3c8dfc2617106f4ce4 ""
  (generated)
  "_build/main/main.log"
  "_build/main/main.out"
  "_build/main/main.aux"
  "_build/main/main.toc"
  "_build/main/main.pdf"
