\contentsline {section}{\numberline {1}First section}{1}{section.1}% 
\contentsline {subsection}{\numberline {1.1}Sub}{1}{subsection.1.1}% 
\contentsline {subsubsection}{\numberline {1.1.1}SubSub}{2}{subsubsection.1.1.1}% 
\contentsline {section}{\numberline {2}Foo}{4}{section.2}% 
\contentsline {subsection}{\numberline {2.1}Bar}{4}{subsection.2.1}% 
\contentsline {paragraph}{Par}{4}{section*.2}% 
\contentsline {section}{\numberline {3}TEST}{4}{section.3}% 
