# Fdb version 3
["latex"] 1597073572 "beamer_pdflatex.tex" "beamer_pdflatex.dvi" "beamer_pdflatex" 1597073572
  "/opt/local/share/texmf-texlive/fonts/type1/public/cm-super/sfss0800.pfb" 1556757580 95441 e322369dec2b43bb317c506a4a44deaa ""
  "/opt/local/share/texmf-texlive/fonts/type1/public/cm-super/sfss1095.pfb" 1556757580 97272 e31c1319e3ff43b442c57e2c8f2acc52 ""
  "/opt/local/share/texmf-texlive/fonts/type1/public/cm-super/sfss1440.pfb" 1556757580 90944 dacec9e1206365a1c204a7fc6d00fb08 ""
  "/opt/local/share/texmf-texlive/fonts/type1/public/cm-super/sftt1095.pfb" 1556757580 169670 48d12e69c9a3b23c81f6d703ccbd4554 ""
  "/opt/local/share/texmf-texlive/tex/context/base/mkii/supp-pdf.mkii" 1556757891 71627 94eb9990bed73c364d7f53f960cc8c5b ""
  "/opt/local/share/texmf-texlive/tex/generic/oberdiek/gettitlestring.sty" 1556757912 8237 3b62ef1f7e2c23a328c814b3893bc11f ""
  "/opt/local/share/texmf-texlive/tex/latex/amsfonts/umsa.fd" 1556757926 961 6518c6525a34feb5e8250ffa91731cff ""
  "/opt/local/share/texmf-texlive/tex/latex/amsfonts/umsb.fd" 1556757926 961 d02606146ba5601b5645f987c92e6193 ""
  "/opt/local/share/texmf-texlive/tex/latex/base/t1cmtt.fd" 1556757929 2446 898e9a1961d873c4471b5d9a683366d0 ""
  "/opt/local/share/texmf-texlive/tex/latex/hyperref/nameref.sty" 1556757965 12949 81e4e808884a8f0e276b69410e234656 ""
  "/opt/local/share/texmf-texlive/tex/latex/latexconfig/epstopdf-sys.cfg" 1556757969 678 4792914a8f45be57bb98413425e4c7af ""
  "/opt/local/share/texmf-texlive/tex/latex/oberdiek/epstopdf-base.sty" 1556757980 12095 5337833c991d80788a43d3ce26bd1c46 ""
  "/opt/local/share/texmf-texlive/tex/latex/oberdiek/grfext.sty" 1556757980 7075 2fe3d848bba95f139de11ded085e74aa ""
  "/opt/local/share/texmf-texlive/tex/latex/sansmathaccent/ot1mathkerncmss.fd" 1556757988 1299 299fd4fecf7d7085f0a8361bcf0e7804 ""
  "/opt/local/share/texmf-texlive/tex/latex/translator/translator-basic-dictionary-English.dict" 1556757996 3435 0a4d096dde3f8fe682c2aedd33b8137d ""
  "/opt/local/share/texmf-texlive/tex/latex/translator/translator-bibliography-dictionary-English.dict" 1556757996 903 c6d17f0656e9e1abb172b4faebabd617 ""
  "/opt/local/share/texmf-texlive/tex/latex/translator/translator-environment-dictionary-English.dict" 1556757996 433 bfb8d1c2c020defd2de8e5c276710094 ""
  "/opt/local/share/texmf-texlive/tex/latex/translator/translator-months-dictionary-English.dict" 1556757996 1337 9a6c05e8f0c8b3c5f27cbd0e455cf475 ""
  "/opt/local/share/texmf-texlive/tex/latex/translator/translator-numbers-dictionary-English.dict" 1556757996 1638 2bf1a1dea98f8a4d28033fce76e9cc67 ""
  "/opt/local/share/texmf-texlive/tex/latex/translator/translator-theorem-dictionary-English.dict" 1556757996 3523 1f9d9b91f7d78b73e74c7e97bca30fb0 ""
  "beamer_pdflatex.aux" 1597073561 4010 5744a20e188015a70bd79629a3f818b6 "latex"
  "beamer_pdflatex.nav" 1597073561 1966 8ed87b2b1f4ca2de04ecd2c67e6a931a "latex"
  "beamer_pdflatex.out" 1597073561 167 c39ae8d947bca5263753ea4baeb2ee67 "latex"
  "beamer_pdflatex.tex" 1597073568 5548 2bc81bd026d2356278fe2bad5e7a62c6 ""
  "beamer_pdflatex.toc" 1597073561 194 4aaa34fe7883d07adb695faaec686249 "latex"
  "beamer_pdflatex.vrb" 1597073561 433 186d0665f568560aff02377da7dc0599 "latex"
  (generated)
  "beamer_pdflatex.toc"
  "beamer_pdflatex.vrb"
  "beamer_pdflatex.aux"
  "beamer_pdflatex.log"
  "beamer_pdflatex.dvi"
  "beamer_pdflatex.nav"
  "beamer_pdflatex.out"
