# Fdb version 3
["pdflatex"] 1617116181 "evincemain.tex" "_build/evincemain/evincemain.pdf" "evincemain" 1617116182
  "/opt/local/etc/texmf/texmf.cnf" 1601555730 37503 89c9b9edb3916d8114c95a36a3609326 ""
  "/opt/local/share/texmf-texlive/fonts/map/fontname/texfonts.map" 1583632499 3524 cb3e574dea2d1052e39280babc910dc8 ""
  "/opt/local/share/texmf-texlive/fonts/tfm/public/cm/cmbx10.tfm" 1556757456 1328 c834bbb027764024c09d3d2bf908b5f0 ""
  "/opt/local/share/texmf-texlive/fonts/tfm/public/cm/cmbx12.tfm" 1556757456 1324 c910af8c371558dc20f2d7822f66fe64 ""
  "/opt/local/share/texmf-texlive/fonts/tfm/public/cm/cmr12.tfm" 1556757456 1288 655e228510b4c2a1abe905c368440826 ""
  "/opt/local/share/texmf-texlive/fonts/tfm/public/cm/cmtt10.tfm" 1556757456 768 1321e9409b4137d6fb428ac9dc956269 ""
  "/opt/local/share/texmf-texlive/fonts/type1/public/amsfonts/cm/cmbx10.pfb" 1556757566 34811 78b52f49e893bcba91bd7581cdc144c0 ""
  "/opt/local/share/texmf-texlive/fonts/type1/public/amsfonts/cm/cmbx12.pfb" 1556757566 32080 340ef9bf63678554ee606688e7b5339d ""
  "/opt/local/share/texmf-texlive/fonts/type1/public/amsfonts/cm/cmr10.pfb" 1556757566 35752 024fb6c41858982481f6968b5fc26508 ""
  "/opt/local/share/texmf-texlive/fonts/type1/public/amsfonts/cm/cmtt10.pfb" 1556757566 31099 c85edf1dd5b9e826d67c9c7293b6786c ""
  "/opt/local/share/texmf-texlive/tex/latex/base/article.cls" 1583632659 20023 e427dd9e17e239bf926ef3aab67fe35e ""
  "/opt/local/share/texmf-texlive/tex/latex/base/size10.clo" 1583632659 8446 9874cccac5fee462272c582807dbbf56 ""
  "/opt/local/share/texmf-texlive/tex/latex/l3backend/l3backend-pdfmode.def" 1587434785 25398 19ae1e59d7f4a47fefb457d851f6f503 ""
  "/opt/local/var/db/texmf/fonts/map/pdftex/updmap/pdftex.map" 1601889159 4811893 17e2378f2f56d60704f76f267b4a05cb ""
  "/opt/local/var/db/texmf/web2c/pdftex/pdflatex.fmt" 1601888948 2430977 592d2b85a803d266622b62eafa61864b ""
  "_build/evincemain/evincemain.aux" 1617116182 562 d5763aff05a614366624338b27a5f48f "pdflatex"
  "evincemain.tex" 1617114649 1449 11830a2c214a4126c38e0bbe2225e855 ""
  (generated)
  "_build/evincemain/evincemain.pdf"
  "_build/evincemain/evincemain.aux"
  "_build/evincemain/evincemain.log"
